info face=font size=30 bold=0 italic=0 charset= unicode= stretchH=100 smooth=1 aa=1 padding=2,2,2,2 spacing=0,0 outline=0
common lineHeight=34 base=27 scaleW=256 scaleH=512 pages=1 packed=0
page id=0 file="bitmapFont.png"
chars count=146
char id=97 x=2 y=2 width=17 height=19 xoffset=0 yoffset=11 xadvance=17 page=0 chnl=15
char id=98 x=2 y=23 width=16 height=24 xoffset=1 yoffset=5 xadvance=17 page=0 chnl=15
char id=99 x=2 y=49 width=16 height=19 xoffset=0 yoffset=11 xadvance=15 page=0 chnl=15
char id=100 x=2 y=70 width=16 height=24 xoffset=0 yoffset=5 xadvance=17 page=0 chnl=15
char id=101 x=2 y=96 width=17 height=19 xoffset=0 yoffset=11 xadvance=17 page=0 chnl=15
char id=102 x=20 y=23 width=11 height=24 xoffset=-1 yoffset=5 xadvance=8 page=0 chnl=15
char id=103 x=20 y=49 width=16 height=25 xoffset=0 yoffset=11 xadvance=17 page=0 chnl=15
char id=104 x=33 y=2 width=15 height=24 xoffset=1 yoffset=5 xadvance=17 page=0 chnl=15
char id=105 x=2 y=117 width=5 height=24 xoffset=1 yoffset=5 xadvance=7 page=0 chnl=15
char id=106 x=2 y=143 width=8 height=30 xoffset=-2 yoffset=5 xadvance=7 page=0 chnl=15
char id=107 x=9 y=117 width=15 height=24 xoffset=1 yoffset=5 xadvance=15 page=0 chnl=15
char id=108 x=21 y=76 width=5 height=24 xoffset=1 yoffset=5 xadvance=7 page=0 chnl=15
char id=109 x=33 y=28 width=23 height=18 xoffset=1 yoffset=11 xadvance=25 page=0 chnl=15
char id=110 x=50 y=2 width=15 height=18 xoffset=1 yoffset=11 xadvance=17 page=0 chnl=15
char id=111 x=2 y=175 width=17 height=19 xoffset=0 yoffset=11 xadvance=17 page=0 chnl=15
char id=112 x=12 y=143 width=16 height=24 xoffset=1 yoffset=11 xadvance=17 page=0 chnl=15
char id=113 x=26 y=102 width=16 height=24 xoffset=0 yoffset=11 xadvance=17 page=0 chnl=15
char id=114 x=28 y=76 width=11 height=18 xoffset=1 yoffset=11 xadvance=10 page=0 chnl=15
char id=115 x=38 y=48 width=15 height=19 xoffset=0 yoffset=11 xadvance=15 page=0 chnl=15
char id=116 x=41 y=69 width=10 height=24 xoffset=0 yoffset=6 xadvance=8 page=0 chnl=15
char id=117 x=2 y=196 width=15 height=18 xoffset=1 yoffset=11 xadvance=17 page=0 chnl=15
char id=118 x=2 y=216 width=18 height=18 xoffset=-2 yoffset=11 xadvance=15 page=0 chnl=15
char id=119 x=19 y=196 width=24 height=18 xoffset=-1 yoffset=11 xadvance=22 page=0 chnl=15
char id=120 x=21 y=169 width=17 height=18 xoffset=-1 yoffset=11 xadvance=15 page=0 chnl=15
char id=121 x=30 y=128 width=18 height=24 xoffset=-2 yoffset=11 xadvance=15 page=0 chnl=15
char id=122 x=44 y=95 width=16 height=18 xoffset=0 yoffset=11 xadvance=15 page=0 chnl=15
char id=65 x=53 y=69 width=24 height=24 xoffset=-2 yoffset=5 xadvance=20 page=0 chnl=15
char id=66 x=40 y=154 width=19 height=24 xoffset=1 yoffset=5 xadvance=20 page=0 chnl=15
char id=67 x=50 y=115 width=21 height=25 xoffset=0 yoffset=5 xadvance=22 page=0 chnl=15
char id=68 x=58 y=22 width=20 height=24 xoffset=1 yoffset=5 xadvance=22 page=0 chnl=15
char id=69 x=2 y=236 width=18 height=24 xoffset=1 yoffset=5 xadvance=20 page=0 chnl=15
char id=70 x=2 y=262 width=17 height=24 xoffset=1 yoffset=5 xadvance=18 page=0 chnl=15
char id=71 x=2 y=288 width=22 height=25 xoffset=1 yoffset=5 xadvance=23 page=0 chnl=15
char id=72 x=21 y=262 width=19 height=24 xoffset=1 yoffset=5 xadvance=22 page=0 chnl=15
char id=73 x=22 y=216 width=5 height=24 xoffset=2 yoffset=5 xadvance=8 page=0 chnl=15
char id=74 x=29 y=216 width=14 height=24 xoffset=0 yoffset=5 xadvance=15 page=0 chnl=15
char id=75 x=2 y=315 width=20 height=24 xoffset=1 yoffset=5 xadvance=20 page=0 chnl=15
char id=76 x=2 y=341 width=16 height=24 xoffset=1 yoffset=5 xadvance=17 page=0 chnl=15
char id=77 x=2 y=367 width=23 height=24 xoffset=1 yoffset=5 xadvance=25 page=0 chnl=15
char id=78 x=20 y=341 width=19 height=24 xoffset=1 yoffset=5 xadvance=22 page=0 chnl=15
char id=79 x=26 y=288 width=23 height=25 xoffset=0 yoffset=5 xadvance=23 page=0 chnl=15
char id=80 x=24 y=315 width=19 height=24 xoffset=1 yoffset=5 xadvance=20 page=0 chnl=15
char id=81 x=42 y=242 width=23 height=26 xoffset=0 yoffset=5 xadvance=23 page=0 chnl=15
char id=82 x=45 y=180 width=21 height=24 xoffset=1 yoffset=5 xadvance=22 page=0 chnl=15
char id=83 x=45 y=206 width=19 height=25 xoffset=0 yoffset=5 xadvance=20 page=0 chnl=15
char id=84 x=66 y=206 width=19 height=24 xoffset=0 yoffset=5 xadvance=18 page=0 chnl=15
char id=85 x=61 y=142 width=19 height=24 xoffset=1 yoffset=5 xadvance=22 page=0 chnl=15
char id=86 x=68 y=168 width=23 height=24 xoffset=-2 yoffset=5 xadvance=20 page=0 chnl=15
char id=87 x=73 y=95 width=30 height=24 xoffset=-1 yoffset=5 xadvance=28 page=0 chnl=15
char id=88 x=82 y=121 width=22 height=24 xoffset=-1 yoffset=5 xadvance=20 page=0 chnl=15
char id=89 x=79 y=48 width=22 height=24 xoffset=-1 yoffset=5 xadvance=20 page=0 chnl=15
char id=90 x=80 y=2 width=19 height=24 xoffset=0 yoffset=5 xadvance=18 page=0 chnl=15
char id=33 x=101 y=2 width=6 height=24 xoffset=2 yoffset=5 xadvance=8 page=0 chnl=15
char id=8470 x=103 y=28 width=31 height=24 xoffset=1 yoffset=5 xadvance=32 page=0 chnl=15
char id=59 x=109 y=2 width=6 height=22 xoffset=1 yoffset=11 xadvance=8 page=0 chnl=15
char id=37 x=103 y=54 width=25 height=25 xoffset=1 yoffset=5 xadvance=27 page=0 chnl=15
char id=58 x=62 y=95 width=5 height=18 xoffset=2 yoffset=11 xadvance=8 page=0 chnl=15
char id=63 x=117 y=2 width=16 height=24 xoffset=0 yoffset=5 xadvance=17 page=0 chnl=15
char id=42 x=79 y=81 width=12 height=11 xoffset=0 yoffset=5 xadvance=12 page=0 chnl=15
char id=40 x=105 y=81 width=9 height=31 xoffset=1 yoffset=5 xadvance=10 page=0 chnl=15
char id=41 x=2 y=393 width=9 height=31 xoffset=1 yoffset=5 xadvance=10 page=0 chnl=15
char id=95 x=21 y=189 width=20 height=4 xoffset=-1 yoffset=31 xadvance=17 page=0 chnl=15
char id=43 x=22 y=242 width=17 height=17 xoffset=1 yoffset=9 xadvance=18 page=0 chnl=15
char id=45 x=93 y=81 width=10 height=5 xoffset=0 yoffset=17 xadvance=10 page=0 chnl=15
char id=61 x=80 y=28 width=17 height=11 xoffset=1 yoffset=11 xadvance=18 page=0 chnl=15
char id=46 x=61 y=168 width=5 height=5 xoffset=2 yoffset=24 xadvance=8 page=0 chnl=15
char id=44 x=50 y=142 width=6 height=10 xoffset=1 yoffset=24 xadvance=8 page=0 chnl=15
char id=47 x=2 y=426 width=11 height=25 xoffset=-1 yoffset=5 xadvance=8 page=0 chnl=15
char id=124 x=13 y=393 width=4 height=31 xoffset=2 yoffset=5 xadvance=8 page=0 chnl=15
char id=34 x=21 y=2 width=10 height=10 xoffset=0 yoffset=5 xadvance=11 page=0 chnl=15
char id=39 x=68 y=194 width=5 height=10 xoffset=0 yoffset=5 xadvance=6 page=0 chnl=15
char id=64 x=2 y=453 width=30 height=31 xoffset=1 yoffset=5 xadvance=30 page=0 chnl=15
char id=35 x=15 y=426 width=18 height=25 xoffset=-1 yoffset=5 xadvance=17 page=0 chnl=15
char id=36 x=19 y=393 width=17 height=29 xoffset=0 yoffset=3 xadvance=17 page=0 chnl=15
char id=94 x=42 y=270 width=16 height=14 xoffset=-1 yoffset=5 xadvance=14 page=0 chnl=15
char id=38 x=34 y=453 width=20 height=25 xoffset=0 yoffset=5 xadvance=20 page=0 chnl=15
char id=123 x=38 y=367 width=11 height=31 xoffset=0 yoffset=5 xadvance=10 page=0 chnl=15
char id=125 x=45 y=315 width=11 height=31 xoffset=0 yoffset=5 xadvance=10 page=0 chnl=15
char id=91 x=34 y=480 width=8 height=30 xoffset=1 yoffset=5 xadvance=8 page=0 chnl=15
char id=93 x=44 y=480 width=8 height=30 xoffset=0 yoffset=5 xadvance=8 page=0 chnl=15
char id=1072 x=55 y=48 width=17 height=19 xoffset=0 yoffset=11 xadvance=17 page=0 chnl=15
char id=1073 x=51 y=286 width=17 height=25 xoffset=0 yoffset=5 xadvance=17 page=0 chnl=15
char id=1074 x=82 y=147 width=15 height=18 xoffset=1 yoffset=11 xadvance=16 page=0 chnl=15
char id=1075 x=67 y=2 width=11 height=18 xoffset=1 yoffset=11 xadvance=11 page=0 chnl=15
char id=1076 x=2 y=486 width=19 height=22 xoffset=-1 yoffset=11 xadvance=18 page=0 chnl=15
char id=1077 x=135 y=2 width=17 height=19 xoffset=0 yoffset=11 xadvance=17 page=0 chnl=15
char id=1105 x=35 y=424 width=17 height=24 xoffset=0 yoffset=5 xadvance=17 page=0 chnl=15
char id=1078 x=38 y=400 width=23 height=18 xoffset=-1 yoffset=11 xadvance=20 page=0 chnl=15
char id=1079 x=54 y=480 width=14 height=19 xoffset=0 yoffset=11 xadvance=14 page=0 chnl=15
char id=1080 x=54 y=420 width=15 height=18 xoffset=1 yoffset=11 xadvance=17 page=0 chnl=15
char id=1081 x=56 y=440 width=15 height=24 xoffset=1 yoffset=5 xadvance=17 page=0 chnl=15
char id=1082 x=70 y=466 width=14 height=18 xoffset=1 yoffset=11 xadvance=13 page=0 chnl=15
char id=1083 x=70 y=486 width=17 height=18 xoffset=-1 yoffset=11 xadvance=18 page=0 chnl=15
char id=1084 x=51 y=348 width=19 height=18 xoffset=1 yoffset=11 xadvance=21 page=0 chnl=15
char id=1085 x=51 y=368 width=15 height=18 xoffset=1 yoffset=11 xadvance=17 page=0 chnl=15
char id=1086 x=63 y=388 width=17 height=19 xoffset=0 yoffset=11 xadvance=17 page=0 chnl=15
char id=1087 x=68 y=368 width=14 height=18 xoffset=1 yoffset=11 xadvance=16 page=0 chnl=15
char id=1088 x=71 y=409 width=16 height=24 xoffset=1 yoffset=11 xadvance=17 page=0 chnl=15
char id=1089 x=82 y=388 width=16 height=19 xoffset=0 yoffset=11 xadvance=15 page=0 chnl=15
char id=1090 x=73 y=435 width=15 height=18 xoffset=0 yoffset=11 xadvance=14 page=0 chnl=15
char id=1091 x=89 y=409 width=18 height=24 xoffset=-2 yoffset=11 xadvance=15 page=0 chnl=15
char id=1092 x=58 y=313 width=25 height=30 xoffset=0 yoffset=5 xadvance=25 page=0 chnl=15
char id=1093 x=72 y=345 width=17 height=18 xoffset=-1 yoffset=11 xadvance=15 page=0 chnl=15
char id=1094 x=86 y=455 width=16 height=22 xoffset=1 yoffset=11 xadvance=17 page=0 chnl=15
char id=1095 x=90 y=435 width=15 height=18 xoffset=0 yoffset=11 xadvance=16 page=0 chnl=15
char id=1096 x=84 y=365 width=22 height=18 xoffset=1 yoffset=11 xadvance=24 page=0 chnl=15
char id=1097 x=100 y=385 width=24 height=22 xoffset=1 yoffset=11 xadvance=25 page=0 chnl=15
char id=1100 x=89 y=479 width=15 height=18 xoffset=1 yoffset=11 xadvance=16 page=0 chnl=15
char id=1099 x=104 y=455 width=20 height=18 xoffset=1 yoffset=11 xadvance=22 page=0 chnl=15
char id=1098 x=107 y=435 width=19 height=18 xoffset=0 yoffset=11 xadvance=19 page=0 chnl=15
char id=1101 x=109 y=409 width=16 height=19 xoffset=-31 yoffset=11 xadvance=15 page=0 chnl=15
char id=1102 x=106 y=475 width=22 height=19 xoffset=1 yoffset=11 xadvance=23 page=0 chnl=15
char id=1103 x=126 y=455 width=16 height=18 xoffset=-1 yoffset=11 xadvance=16 page=0 chnl=15
char id=1040 x=130 y=475 width=24 height=24 xoffset=-2 yoffset=5 xadvance=20 page=0 chnl=15
char id=1041 x=67 y=232 width=19 height=24 xoffset=1 yoffset=5 xadvance=20 page=0 chnl=15
char id=1042 x=67 y=258 width=19 height=24 xoffset=1 yoffset=5 xadvance=20 page=0 chnl=15
char id=1043 x=70 y=284 width=16 height=24 xoffset=1 yoffset=5 xadvance=16 page=0 chnl=15
char id=1044 x=85 y=310 width=21 height=29 xoffset=-1 yoffset=5 xadvance=20 page=0 chnl=15
char id=1045 x=87 y=194 width=18 height=24 xoffset=1 yoffset=5 xadvance=20 page=0 chnl=15
char id=1025 x=99 y=147 width=18 height=28 xoffset=1 yoffset=1 xadvance=20 page=0 chnl=15
char id=1046 x=106 y=114 width=30 height=24 xoffset=-1 yoffset=5 xadvance=28 page=0 chnl=15
char id=1047 x=116 y=81 width=18 height=25 xoffset=0 yoffset=5 xadvance=18 page=0 chnl=15
char id=1048 x=130 y=54 width=19 height=24 xoffset=1 yoffset=5 xadvance=22 page=0 chnl=15
char id=1049 x=136 y=23 width=19 height=29 xoffset=1 yoffset=0 xadvance=22 page=0 chnl=15
char id=1050 x=136 y=80 width=17 height=24 xoffset=1 yoffset=5 xadvance=17 page=0 chnl=15
char id=1051 x=151 y=54 width=19 height=24 xoffset=-1 yoffset=5 xadvance=20 page=0 chnl=15
char id=1052 x=157 y=2 width=23 height=24 xoffset=1 yoffset=5 xadvance=25 page=0 chnl=15
char id=1053 x=157 y=28 width=19 height=24 xoffset=1 yoffset=5 xadvance=22 page=0 chnl=15
char id=1054 x=88 y=220 width=23 height=25 xoffset=0 yoffset=5 xadvance=23 page=0 chnl=15
char id=1055 x=107 y=177 width=19 height=24 xoffset=1 yoffset=5 xadvance=22 page=0 chnl=15
char id=1056 x=119 y=140 width=19 height=24 xoffset=1 yoffset=5 xadvance=20 page=0 chnl=15
char id=1057 x=138 y=106 width=21 height=25 xoffset=0 yoffset=5 xadvance=22 page=0 chnl=15
char id=1058 x=155 y=80 width=19 height=24 xoffset=0 yoffset=5 xadvance=18 page=0 chnl=15
char id=1059 x=172 y=54 width=21 height=24 xoffset=-1 yoffset=5 xadvance=19 page=0 chnl=15
char id=1060 x=178 y=28 width=23 height=24 xoffset=0 yoffset=5 xadvance=23 page=0 chnl=15
char id=1061 x=182 y=2 width=22 height=24 xoffset=-1 yoffset=5 xadvance=20 page=0 chnl=15
char id=1062 x=88 y=247 width=21 height=30 xoffset=1 yoffset=5 xadvance=22 page=0 chnl=15
char id=1063 x=88 y=279 width=19 height=24 xoffset=0 yoffset=5 xadvance=20 page=0 chnl=15
char id=1064 x=108 y=305 width=25 height=24 xoffset=1 yoffset=5 xadvance=27 page=0 chnl=15
char id=1065 x=108 y=331 width=27 height=30 xoffset=1 yoffset=5 xadvance=28 page=0 chnl=15
char id=1068 x=109 y=279 width=19 height=24 xoffset=1 yoffset=5 xadvance=20 page=0 chnl=15
char id=1067 x=111 y=247 width=24 height=24 xoffset=1 yoffset=5 xadvance=27 page=0 chnl=15
char id=1066 x=130 y=273 width=25 height=24 xoffset=-1 yoffset=5 xadvance=24 page=0 chnl=15
char id=1069 x=135 y=299 width=21 height=25 xoffset=-43 yoffset=5 xadvance=22 page=0 chnl=15
char id=1070 x=113 y=203 width=29 height=25 xoffset=1 yoffset=5 xadvance=30 page=0 chnl=15
char id=1071 x=128 y=166 width=21 height=24 xoffset=-44 yoffset=5 xadvance=22 page=0 chnl=15
char id=32 x=0 y=0 width=0 height=0 xoffset=-44 yoffset=5 xadvance=8 page=0 chnl=15
kernings count=554
kerning first=32 second=65 amount=-2
kerning first=32 second=84 amount=-1
kerning first=32 second=89 amount=-1
kerning first=65 second=32 amount=-2
kerning first=65 second=84 amount=-2
kerning first=65 second=86 amount=-2
kerning first=65 second=87 amount=-1
kerning first=65 second=89 amount=-2
kerning first=65 second=118 amount=-1
kerning first=65 second=119 amount=-1
kerning first=65 second=121 amount=-1
kerning first=70 second=44 amount=-3
kerning first=70 second=46 amount=-3
kerning first=70 second=65 amount=-2
kerning first=76 second=32 amount=-1
kerning first=76 second=84 amount=-2
kerning first=76 second=86 amount=-2
kerning first=76 second=87 amount=-2
kerning first=76 second=89 amount=-2
kerning first=76 second=121 amount=-1
kerning first=80 second=32 amount=-1
kerning first=80 second=44 amount=-4
kerning first=80 second=46 amount=-4
kerning first=80 second=65 amount=-2
kerning first=82 second=84 amount=-1
kerning first=82 second=86 amount=-1
kerning first=82 second=87 amount=-1
kerning first=82 second=89 amount=-1
kerning first=84 second=32 amount=-1
kerning first=84 second=44 amount=-3
kerning first=84 second=45 amount=-2
kerning first=84 second=46 amount=-3
kerning first=84 second=58 amount=-3
kerning first=84 second=59 amount=-3
kerning first=84 second=65 amount=-2
kerning first=84 second=79 amount=-1
kerning first=84 second=97 amount=-3
kerning first=84 second=99 amount=-3
kerning first=84 second=101 amount=-3
kerning first=84 second=105 amount=-1
kerning first=84 second=111 amount=-3
kerning first=84 second=114 amount=-1
kerning first=84 second=115 amount=-3
kerning first=84 second=117 amount=-1
kerning first=84 second=119 amount=-2
kerning first=84 second=121 amount=-2
kerning first=86 second=44 amount=-3
kerning first=86 second=45 amount=-2
kerning first=86 second=46 amount=-3
kerning first=86 second=58 amount=-1
kerning first=86 second=59 amount=-1
kerning first=86 second=65 amount=-2
kerning first=86 second=97 amount=-2
kerning first=86 second=101 amount=-2
kerning first=86 second=105 amount=-1
kerning first=86 second=111 amount=-2
kerning first=86 second=114 amount=-1
kerning first=86 second=117 amount=-1
kerning first=86 second=121 amount=-1
kerning first=87 second=44 amount=-2
kerning first=87 second=45 amount=-1
kerning first=87 second=46 amount=-2
kerning first=87 second=58 amount=-1
kerning first=87 second=59 amount=-1
kerning first=87 second=65 amount=-1
kerning first=87 second=97 amount=-1
kerning first=87 second=101 amount=-1
kerning first=87 second=105 amount=0
kerning first=87 second=111 amount=-1
kerning first=87 second=114 amount=-1
kerning first=87 second=117 amount=-1
kerning first=87 second=121 amount=0
kerning first=89 second=32 amount=-1
kerning first=89 second=44 amount=-4
kerning first=89 second=45 amount=-3
kerning first=89 second=46 amount=-4
kerning first=89 second=58 amount=-2
kerning first=89 second=59 amount=-2
kerning first=89 second=65 amount=-2
kerning first=89 second=97 amount=-2
kerning first=89 second=101 amount=-3
kerning first=89 second=105 amount=-1
kerning first=89 second=111 amount=-3
kerning first=89 second=112 amount=-2
kerning first=89 second=113 amount=-3
kerning first=89 second=117 amount=-2
kerning first=89 second=118 amount=-2
kerning first=102 second=102 amount=-1
kerning first=114 second=44 amount=-2
kerning first=114 second=46 amount=-2
kerning first=118 second=44 amount=-2
kerning first=118 second=46 amount=-2
kerning first=119 second=44 amount=-2
kerning first=119 second=46 amount=-2
kerning first=121 second=44 amount=-2
kerning first=121 second=46 amount=-2
kerning first=1040 second=1044 amount=1
kerning first=1040 second=1047 amount=0
kerning first=1040 second=1051 amount=1
kerning first=1040 second=1054 amount=-1
kerning first=1040 second=1055 amount=0
kerning first=1040 second=1057 amount=-1
kerning first=1040 second=1058 amount=-2
kerning first=1040 second=1059 amount=-1
kerning first=1040 second=1060 amount=-1
kerning first=1040 second=1063 amount=-2
kerning first=1040 second=1069 amount=-1
kerning first=1040 second=1072 amount=0
kerning first=1040 second=1090 amount=-1
kerning first=1040 second=1091 amount=0
kerning first=1040 second=1092 amount=0
kerning first=1040 second=1101 amount=1
kerning first=1041 second=1040 amount=-1
kerning first=1041 second=1047 amount=0
kerning first=1041 second=1054 amount=0
kerning first=1041 second=1057 amount=0
kerning first=1041 second=1058 amount=-1
kerning first=1041 second=1059 amount=-1
kerning first=1041 second=1060 amount=0
kerning first=1041 second=1061 amount=-1
kerning first=1041 second=1063 amount=-1
kerning first=1041 second=1066 amount=-1
kerning first=1041 second=1069 amount=0
kerning first=1041 second=1071 amount=0
kerning first=1041 second=1083 amount=0
kerning first=1041 second=1091 amount=-1
kerning first=1042 second=1040 amount=-1
kerning first=1042 second=1044 amount=-1
kerning first=1042 second=1046 amount=-1
kerning first=1042 second=1047 amount=-1
kerning first=1042 second=1051 amount=0
kerning first=1042 second=1054 amount=-1
kerning first=1042 second=1057 amount=-1
kerning first=1042 second=1058 amount=-2
kerning first=1042 second=1059 amount=-1
kerning first=1042 second=1060 amount=-1
kerning first=1042 second=1061 amount=-1
kerning first=1042 second=1063 amount=-1
kerning first=1042 second=1066 amount=-2
kerning first=1042 second=1071 amount=-1
kerning first=1042 second=1076 amount=0
kerning first=1042 second=1084 amount=0
kerning first=1042 second=1090 amount=-1
kerning first=1042 second=1091 amount=0
kerning first=1042 second=1093 amount=0
kerning first=1042 second=1095 amount=-1
kerning first=1042 second=1103 amount=0
kerning first=1043 second=44 amount=-4
kerning first=1043 second=46 amount=-4
kerning first=1043 second=1040 amount=-2
kerning first=1043 second=1044 amount=-2
kerning first=1043 second=1047 amount=-1
kerning first=1043 second=1051 amount=-2
kerning first=1043 second=1052 amount=-1
kerning first=1043 second=1054 amount=-2
kerning first=1043 second=1057 amount=-1
kerning first=1043 second=1071 amount=-1
kerning first=1043 second=1072 amount=-2
kerning first=1043 second=1074 amount=-2
kerning first=1043 second=1076 amount=-2
kerning first=1043 second=1077 amount=-2
kerning first=1043 second=1080 amount=-2
kerning first=1043 second=1083 amount=-2
kerning first=1043 second=1084 amount=-2
kerning first=1043 second=1085 amount=-2
kerning first=1043 second=1086 amount=-2
kerning first=1043 second=1088 amount=-2
kerning first=1043 second=1091 amount=-2
kerning first=1043 second=1099 amount=-2
kerning first=1043 second=1100 amount=-2
kerning first=1043 second=1102 amount=-2
kerning first=1043 second=1103 amount=-2
kerning first=1044 second=1059 amount=0
kerning first=1044 second=1060 amount=-1
kerning first=1044 second=1063 amount=-1
kerning first=1044 second=1079 amount=1
kerning first=1044 second=1086 amount=0
kerning first=1044 second=1091 amount=1
kerning first=1045 second=1047 amount=-1
kerning first=1045 second=1089 amount=0
kerning first=1046 second=1047 amount=0
kerning first=1046 second=1054 amount=-1
kerning first=1046 second=1057 amount=0
kerning first=1046 second=1058 amount=0
kerning first=1046 second=1059 amount=1
kerning first=1046 second=1066 amount=1
kerning first=1046 second=1072 amount=0
kerning first=1046 second=1077 amount=0
kerning first=1046 second=1086 amount=0
kerning first=1046 second=1091 amount=0
kerning first=1047 second=1051 amount=0
kerning first=1047 second=1054 amount=0
kerning first=1047 second=1057 amount=0
kerning first=1047 second=1058 amount=-1
kerning first=1047 second=1059 amount=0
kerning first=1047 second=1060 amount=0
kerning first=1047 second=1063 amount=-1
kerning first=1047 second=1071 amount=0
kerning first=1050 second=1047 amount=0
kerning first=1050 second=1054 amount=0
kerning first=1050 second=1057 amount=0
kerning first=1050 second=1059 amount=0
kerning first=1050 second=1060 amount=-1
kerning first=1051 second=1060 amount=0
kerning first=1051 second=1073 amount=0
kerning first=1051 second=1091 amount=0
kerning first=1052 second=1060 amount=0
kerning first=1052 second=1063 amount=0
kerning first=1052 second=1072 amount=0
kerning first=1052 second=1077 amount=0
kerning first=1052 second=1086 amount=0
kerning first=1052 second=1089 amount=0
kerning first=1052 second=1091 amount=0
kerning first=1052 second=1095 amount=0
kerning first=1052 second=1101 amount=0
kerning first=1054 second=1040 amount=-1
kerning first=1054 second=1044 amount=-1
kerning first=1054 second=1046 amount=-1
kerning first=1054 second=1051 amount=0
kerning first=1054 second=1059 amount=-1
kerning first=1054 second=1061 amount=-1
kerning first=1054 second=1063 amount=-1
kerning first=1054 second=1071 amount=-1
kerning first=1054 second=1076 amount=-1
kerning first=1054 second=1083 amount=0
kerning first=1054 second=1093 amount=0
kerning first=1056 second=44 amount=-6
kerning first=1056 second=46 amount=-6
kerning first=1056 second=58 amount=-1
kerning first=1056 second=59 amount=-1
kerning first=1056 second=1040 amount=-2
kerning first=1056 second=1044 amount=-2
kerning first=1056 second=1046 amount=0
kerning first=1056 second=1047 amount=-1
kerning first=1056 second=1051 amount=-2
kerning first=1056 second=1052 amount=0
kerning first=1056 second=1054 amount=-1
kerning first=1056 second=1057 amount=0
kerning first=1056 second=1058 amount=-1
kerning first=1056 second=1059 amount=-1
kerning first=1056 second=1060 amount=0
kerning first=1056 second=1061 amount=-1
kerning first=1056 second=1071 amount=-1
kerning first=1056 second=1072 amount=-1
kerning first=1056 second=1076 amount=-2
kerning first=1056 second=1077 amount=-1
kerning first=1056 second=1086 amount=-1
kerning first=1056 second=1101 amount=-1
kerning first=1056 second=1103 amount=-1
kerning first=1057 second=1040 amount=-1
kerning first=1057 second=1044 amount=-1
kerning first=1057 second=1047 amount=0
kerning first=1057 second=1051 amount=-1
kerning first=1057 second=1052 amount=0
kerning first=1057 second=1054 amount=-1
kerning first=1057 second=1058 amount=-1
kerning first=1057 second=1059 amount=-1
kerning first=1057 second=1061 amount=-2
kerning first=1057 second=1063 amount=-1
kerning first=1057 second=1066 amount=-1
kerning first=1057 second=1069 amount=0
kerning first=1057 second=1072 amount=0
kerning first=1057 second=1078 amount=1
kerning first=1057 second=1095 amount=0
kerning first=1058 second=44 amount=-3
kerning first=1058 second=46 amount=-3
kerning first=1058 second=1040 amount=-1
kerning first=1058 second=1044 amount=-1
kerning first=1058 second=1046 amount=0
kerning first=1058 second=1047 amount=0
kerning first=1058 second=1051 amount=-1
kerning first=1058 second=1054 amount=-1
kerning first=1058 second=1060 amount=-1
kerning first=1058 second=1071 amount=-1
kerning first=1058 second=1072 amount=-1
kerning first=1058 second=1074 amount=-1
kerning first=1058 second=1077 amount=-2
kerning first=1058 second=1080 amount=-1
kerning first=1058 second=1082 amount=-1
kerning first=1058 second=1083 amount=-1
kerning first=1058 second=1084 amount=-1
kerning first=1058 second=1086 amount=-2
kerning first=1058 second=1087 amount=-1
kerning first=1058 second=1088 amount=-2
kerning first=1058 second=1089 amount=-2
kerning first=1058 second=1091 amount=-2
kerning first=1058 second=1093 amount=-1
kerning first=1058 second=1097 amount=-1
kerning first=1058 second=1099 amount=-1
kerning first=1058 second=1100 amount=-1
kerning first=1058 second=1102 amount=-1
kerning first=1058 second=1103 amount=-2
kerning first=1059 second=44 amount=-4
kerning first=1059 second=46 amount=-4
kerning first=1059 second=58 amount=-1
kerning first=1059 second=59 amount=-1
kerning first=1059 second=1040 amount=-2
kerning first=1059 second=1044 amount=-1
kerning first=1059 second=1047 amount=-1
kerning first=1059 second=1051 amount=-1
kerning first=1059 second=1054 amount=-1
kerning first=1059 second=1060 amount=-1
kerning first=1059 second=1069 amount=-1
kerning first=1059 second=1071 amount=-1
kerning first=1059 second=1073 amount=-1
kerning first=1059 second=1074 amount=-2
kerning first=1059 second=1075 amount=-1
kerning first=1059 second=1076 amount=-2
kerning first=1059 second=1077 amount=-2
kerning first=1059 second=1078 amount=-1
kerning first=1059 second=1079 amount=-2
kerning first=1059 second=1080 amount=-1
kerning first=1059 second=1081 amount=-1
kerning first=1059 second=1082 amount=-1
kerning first=1059 second=1083 amount=-2
kerning first=1059 second=1084 amount=-1
kerning first=1059 second=1085 amount=-1
kerning first=1059 second=1086 amount=-2
kerning first=1059 second=1087 amount=-1
kerning first=1059 second=1088 amount=-1
kerning first=1059 second=1089 amount=-2
kerning first=1059 second=1093 amount=-1
kerning first=1059 second=1094 amount=-1
kerning first=1059 second=1096 amount=-1
kerning first=1059 second=1097 amount=-1
kerning first=1059 second=1102 amount=-1
kerning first=1059 second=1103 amount=-2
kerning first=1060 second=1040 amount=-1
kerning first=1060 second=1044 amount=-1
kerning first=1060 second=1051 amount=-1
kerning first=1060 second=1058 amount=-2
kerning first=1060 second=1059 amount=-1
kerning first=1060 second=1063 amount=-1
kerning first=1060 second=1071 amount=-1
kerning first=1060 second=1083 amount=-1
kerning first=1061 second=1047 amount=-1
kerning first=1061 second=1054 amount=-1
kerning first=1061 second=1057 amount=-1
kerning first=1061 second=1060 amount=-1
kerning first=1061 second=1069 amount=-1
kerning first=1061 second=1086 amount=0
kerning first=1061 second=1091 amount=-1
kerning first=1062 second=1054 amount=-1
kerning first=1062 second=1072 amount=1
kerning first=1065 second=1072 amount=0
kerning first=1065 second=1091 amount=1
kerning first=1066 second=1071 amount=-1
kerning first=1068 second=1040 amount=-1
kerning first=1068 second=1044 amount=-1
kerning first=1068 second=1046 amount=-1
kerning first=1068 second=1047 amount=0
kerning first=1068 second=1051 amount=-1
kerning first=1068 second=1052 amount=-1
kerning first=1068 second=1054 amount=-1
kerning first=1068 second=1057 amount=-1
kerning first=1068 second=1058 amount=-3
kerning first=1068 second=1061 amount=-1
kerning first=1068 second=1063 amount=-2
kerning first=1068 second=1069 amount=0
kerning first=1068 second=1071 amount=-1
kerning first=1069 second=1044 amount=-1
kerning first=1069 second=1046 amount=0
kerning first=1069 second=1047 amount=0
kerning first=1069 second=1051 amount=-1
kerning first=1069 second=1061 amount=-1
kerning first=1069 second=1071 amount=-1
kerning first=1069 second=1076 amount=-1
kerning first=1069 second=1078 amount=0
kerning first=1069 second=1083 amount=-1
kerning first=1069 second=1084 amount=0
kerning first=1069 second=1103 amount=0
kerning first=1070 second=1040 amount=-1
kerning first=1070 second=1044 amount=-1
kerning first=1070 second=1046 amount=-1
kerning first=1070 second=1051 amount=-1
kerning first=1070 second=1054 amount=0
kerning first=1070 second=1057 amount=0
kerning first=1070 second=1058 amount=-2
kerning first=1070 second=1061 amount=-1
kerning first=1070 second=1063 amount=-1
kerning first=1070 second=1076 amount=-1
kerning first=1070 second=1083 amount=-1
kerning first=1070 second=1084 amount=0
kerning first=1072 second=1079 amount=0
kerning first=1072 second=1090 amount=-1
kerning first=1072 second=1091 amount=0
kerning first=1072 second=1095 amount=-1
kerning first=1073 second=1072 amount=-1
kerning first=1073 second=1076 amount=-1
kerning first=1073 second=1077 amount=0
kerning first=1073 second=1078 amount=0
kerning first=1073 second=1079 amount=-1
kerning first=1073 second=1083 amount=-1
kerning first=1073 second=1084 amount=-1
kerning first=1073 second=1089 amount=0
kerning first=1073 second=1091 amount=-1
kerning first=1073 second=1092 amount=0
kerning first=1073 second=1093 amount=-1
kerning first=1073 second=1095 amount=-1
kerning first=1073 second=1098 amount=-1
kerning first=1073 second=1101 amount=0
kerning first=1073 second=1103 amount=-1
kerning first=1074 second=1072 amount=0
kerning first=1074 second=1073 amount=0
kerning first=1074 second=1076 amount=0
kerning first=1074 second=1077 amount=0
kerning first=1074 second=1078 amount=0
kerning first=1074 second=1079 amount=0
kerning first=1074 second=1083 amount=-1
kerning first=1074 second=1084 amount=0
kerning first=1074 second=1086 amount=0
kerning first=1074 second=1089 amount=0
kerning first=1074 second=1090 amount=-1
kerning first=1074 second=1091 amount=-1
kerning first=1074 second=1092 amount=0
kerning first=1074 second=1095 amount=-1
kerning first=1074 second=1098 amount=-1
kerning first=1074 second=1103 amount=0
kerning first=1075 second=44 amount=-4
kerning first=1075 second=46 amount=-4
kerning first=1075 second=1072 amount=-1
kerning first=1075 second=1076 amount=-1
kerning first=1075 second=1077 amount=-1
kerning first=1075 second=1079 amount=0
kerning first=1075 second=1083 amount=-1
kerning first=1075 second=1086 amount=-1
kerning first=1075 second=1089 amount=-1
kerning first=1075 second=1103 amount=0
kerning first=1076 second=1098 amount=-1
kerning first=1076 second=1101 amount=0
kerning first=1077 second=1073 amount=0
kerning first=1077 second=1076 amount=-1
kerning first=1077 second=1078 amount=0
kerning first=1077 second=1079 amount=-1
kerning first=1077 second=1083 amount=-1
kerning first=1077 second=1090 amount=-1
kerning first=1077 second=1091 amount=0
kerning first=1077 second=1093 amount=-1
kerning first=1077 second=1095 amount=-1
kerning first=1078 second=1073 amount=0
kerning first=1078 second=1091 amount=0
kerning first=1078 second=1095 amount=0
kerning first=1078 second=1098 amount=1
kerning first=1079 second=1073 amount=0
kerning first=1079 second=1076 amount=-1
kerning first=1079 second=1077 amount=0
kerning first=1079 second=1079 amount=0
kerning first=1079 second=1083 amount=0
kerning first=1079 second=1086 amount=0
kerning first=1079 second=1089 amount=0
kerning first=1079 second=1091 amount=0
kerning first=1079 second=1092 amount=0
kerning first=1079 second=1095 amount=-1
kerning first=1079 second=1098 amount=-1
kerning first=1082 second=1072 amount=1
kerning first=1082 second=1073 amount=1
kerning first=1082 second=1077 amount=0
kerning first=1082 second=1079 amount=0
kerning first=1082 second=1083 amount=0
kerning first=1082 second=1086 amount=0
kerning first=1082 second=1089 amount=0
kerning first=1082 second=1090 amount=0
kerning first=1082 second=1091 amount=0
kerning first=1082 second=1101 amount=0
kerning first=1083 second=1086 amount=0
kerning first=1083 second=1095 amount=-1
kerning first=1084 second=1073 amount=0
kerning first=1084 second=1079 amount=0
kerning first=1084 second=1091 amount=0
kerning first=1086 second=1076 amount=-1
kerning first=1086 second=1078 amount=0
kerning first=1086 second=1079 amount=0
kerning first=1086 second=1083 amount=-1
kerning first=1086 second=1090 amount=-1
kerning first=1086 second=1091 amount=0
kerning first=1086 second=1093 amount=0
kerning first=1086 second=1095 amount=-1
kerning first=1088 second=1076 amount=-1
kerning first=1088 second=1079 amount=0
kerning first=1088 second=1083 amount=-1
kerning first=1088 second=1090 amount=-1
kerning first=1088 second=1091 amount=0
kerning first=1088 second=1093 amount=0
kerning first=1088 second=1095 amount=-1
kerning first=1088 second=1103 amount=0
kerning first=1089 second=1078 amount=0
kerning first=1089 second=1086 amount=0
kerning first=1089 second=1095 amount=0
kerning first=1089 second=1101 amount=0
kerning first=1090 second=44 amount=-3
kerning first=1090 second=46 amount=-3
kerning first=1090 second=1072 amount=0
kerning first=1090 second=1076 amount=-1
kerning first=1090 second=1077 amount=0
kerning first=1090 second=1078 amount=1
kerning first=1090 second=1083 amount=-1
kerning first=1090 second=1086 amount=0
kerning first=1090 second=1089 amount=0
kerning first=1090 second=1091 amount=0
kerning first=1091 second=44 amount=-3
kerning first=1091 second=46 amount=-3
kerning first=1091 second=1072 amount=0
kerning first=1091 second=1073 amount=0
kerning first=1091 second=1076 amount=-1
kerning first=1091 second=1077 amount=0
kerning first=1091 second=1078 amount=0
kerning first=1091 second=1083 amount=-1
kerning first=1091 second=1084 amount=0
kerning first=1091 second=1086 amount=0
kerning first=1091 second=1088 amount=0
kerning first=1091 second=1089 amount=0
kerning first=1091 second=1092 amount=0
kerning first=1091 second=1101 amount=0
kerning first=1091 second=1103 amount=0
kerning first=1092 second=1073 amount=0
kerning first=1092 second=1076 amount=-1
kerning first=1092 second=1083 amount=-1
kerning first=1092 second=1090 amount=-1
kerning first=1092 second=1091 amount=0
kerning first=1092 second=1095 amount=-1
kerning first=1092 second=1103 amount=0
kerning first=1093 second=1072 amount=0
kerning first=1093 second=1073 amount=0
kerning first=1093 second=1077 amount=0
kerning first=1093 second=1079 amount=0
kerning first=1093 second=1086 amount=0
kerning first=1093 second=1089 amount=0
kerning first=1093 second=1090 amount=0
kerning first=1093 second=1092 amount=0
kerning first=1093 second=1095 amount=-1
kerning first=1094 second=1077 amount=0
kerning first=1094 second=1079 amount=0
kerning first=1094 second=1086 amount=0
kerning first=1094 second=1089 amount=0
kerning first=1097 second=1077 amount=0
kerning first=1097 second=1086 amount=0
kerning first=1097 second=1091 amount=0
kerning first=1100 second=1090 amount=-2
kerning first=1100 second=1095 amount=-2
kerning first=1101 second=1076 amount=-1
kerning first=1101 second=1077 amount=0
kerning first=1101 second=1079 amount=0
kerning first=1101 second=1083 amount=-1
kerning first=1101 second=1086 amount=0
kerning first=1101 second=1090 amount=-1
kerning first=1101 second=1093 amount=0
kerning first=1101 second=1103 amount=0
kerning first=1102 second=1076 amount=-1
kerning first=1102 second=1078 amount=0
kerning first=1102 second=1083 amount=-1
kerning first=1102 second=1084 amount=0
kerning first=1102 second=1090 amount=-1
kerning first=1102 second=1093 amount=0
kerning first=1102 second=1095 amount=-1